QuartusProjectFiles/simulation/qsim/SaleTerminal.msim.vcd
$comment
	File created using the following command:
		vcd file SaleTerminal.msim.vcd -direction
$end
$date
	Wed Jun 23 21:38:42 2021
$end
$version
	ModelSim Version 2020.1
$end
$timescale
	1ps
$end

$scope module Direction2ProductID_vlg_vec_tst $end
$var reg 4 ! BasketProductNum [3:0] $end
$var reg 1 " CLOCK $end
$var reg 1 # CleanSW2 $end
$var reg 2 $ Dir_in [1:0] $end
$var reg 1 % Enable $end
$var reg 1 & RESET_N $end
$var wire 1 ' ProductID [3] $end
$var wire 1 ( ProductID [2] $end
$var wire 1 ) ProductID [1] $end
$var wire 1 * ProductID [0] $end

$scope module i1 $end
$var wire 1 + gnd $end
$var wire 1 , vcc $end
$var wire 1 - unknown $end
$var tri1 1 . devclrn $end
$var tri1 1 / devpor $end
$var tri1 1 0 devoe $end
$var wire 1 1 ProductID[0]~output_o $end
$var wire 1 2 ProductID[1]~output_o $end
$var wire 1 3 ProductID[2]~output_o $end
$var wire 1 4 ProductID[3]~output_o $end
$var wire 1 5 CLOCK~input_o $end
$var wire 1 6 CleanSW2~input_o $end
$var wire 1 7 Dir_in[0]~input_o $end
$var wire 1 8 Dir_in[1]~input_o $end
$var wire 1 9 Enable~input_o $end
$var wire 1 : RESET_N~input_o $end
$var wire 1 ; BasketID~1_combout $end
$var wire 1 < BasketID~0_combout $end
$var wire 1 = BasketProductNum[0]~input_o $end
$var wire 1 > Equal1~0_combout $end
$var wire 1 ? BasketProductNum[2]~input_o $end
$var wire 1 @ BasketProductNum[1]~input_o $end
$var wire 1 A Add6~2_combout $end
$var wire 1 B Add6~1_combout $end
$var wire 1 C BasketID~3_combout $end
$var wire 1 D BasketProductNum[3]~input_o $end
$var wire 1 E Add6~3_combout $end
$var wire 1 F Add4~1_combout $end
$var wire 1 G Add5~1_combout $end
$var wire 1 H BasketID~5_combout $end
$var wire 1 I LessThan4~0_combout $end
$var wire 1 J BasketID[1]~2_combout $end
$var wire 1 K Add4~0_combout $end
$var wire 1 L Add5~0_combout $end
$var wire 1 M BasketID~4_combout $end
$var wire 1 N Add6~0_combout $end
$var wire 1 O LessThan5~0_combout $end
$var wire 1 P LessThan5~1_combout $end
$var wire 1 Q BasketID~6_combout $end
$var wire 1 R Mux0~0_combout $end
$var wire 1 S ImgID~4_combout $end
$var wire 1 T ImgID~1_combout $end
$var wire 1 U Mux1~0_combout $end
$var wire 1 V ImgID~3_combout $end
$var wire 1 W Mux2~0_combout $end
$var wire 1 X ImgID~2_combout $end
$var wire 1 Y Mux3~0_combout $end
$var wire 1 Z ImgID~0_combout $end
$var wire 1 [ ProductID~0_combout $end
$var wire 1 \ ProductID~1_combout $end
$var wire 1 ] ProductID~2_combout $end
$var wire 1 ^ ProductID~3_combout $end
$var wire 1 _ BasketID [3] $end
$var wire 1 ` BasketID [2] $end
$var wire 1 a BasketID [1] $end
$var wire 1 b BasketID [0] $end
$var wire 1 c ImgID [3] $end
$var wire 1 d ImgID [2] $end
$var wire 1 e ImgID [1] $end
$var wire 1 f ImgID [0] $end
$upscope $end
$upscope $end
$enddefinitions $end
#0
$dumpvars
b101 !
1"
0#
b0 $
0%
1&
0*
0)
0(
0'
0+
1,
x-
1.
1/
10
01
02
03
04
15
06
07
08
09
1:
1;
0<
1=
0>
1?
0@
0A
1B
0C
0D
1E
0F
0G
0H
0I
0J
0K
0L
0M
0N
0O
1P
0Q
0R
0S
0T
0U
0V
1W
0X
1Y
0Z
0[
0\
0]
0^
0b
0a
0`
0_
0f
0e
0d
0c
$end
#5000
0"
05
#10000
1"
15
#15000
0"
05
#20000
1%
b10 $
1"
19
18
15
1U
1>
0;
1T
1V
#25000
0"
05
1d
0U
1R
1]
13
1(
1S
0V
#30000
0%
b0 $
1"
09
08
15
0Y
0W
0R
0>
1;
0T
0S
1X
1Z
#35000
0"
05
#40000
1"
15
#45000
0"
05
#50000
1%
b10 $
1"
19
18
15
1Y
1W
1R
1>
0;
1T
1S
0X
0Z
#55000
0"
05
1c
0d
0Y
0W
0]
1^
14
03
0(
1'
1X
1Z
#60000
0%
b0 $
1"
09
08
15
1U
0R
0>
1;
0T
0S
1V
#65000
0"
05
#70000
b1 $
b11 $
1"
17
18
15
1W
0U
1R
1S
0V
0X
#75000
0"
05
#80000
1%
b10 $
b0 $
1"
19
07
08
15
0W
1U
0R
0;
1T
0S
1V
1X
#85000
0"
05
0c
1d
1e
1f
1Y
1[
1\
1]
0^
04
13
12
11
1*
1)
1(
0'
0Z
#90000
0%
1"
09
15
0T
1;
#95000
0"
05
#100000
b1 $
b11 $
1%
1"
17
18
19
15
1T
0;
1W
0U
1R
1S
0V
0X
#105000
0"
05
1c
0d
0e
0f
0Y
0[
0\
0]
1^
14
03
02
01
0*
0)
0(
1'
1Z
#110000
b10 $
b0 $
0%
1"
07
08
09
15
0T
1;
0W
1U
0R
0S
1V
1X
#115000
0"
05
#120000
b10 $
1%
1"
18
19
15
1T
0;
0U
1R
1>
1S
0V
#125000
0"
05
1e
1f
1[
1\
12
11
1*
1)
#130000
b11 $
b1 $
1"
17
08
15
1U
0R
0>
0S
1V
#135000
0"
05
0c
1d
0U
1]
0^
04
13
1(
0'
0V
#140000
0%
b0 $
1"
09
07
15
1Y
1U
1;
0T
1V
0Z
#145000
0"
05
#150000
1#
1"
16
15
0]
0\
0[
0X
0V
01
02
03
0(
0)
0*
#155000
0"
05
#160000
b10 $
1%
1"
18
19
15
1T
1<
0;
0Y
0U
1R
1J
1>
1Q
#165000
0"
05
1b
0d
0e
0f
1Y
1W
1U
0R
1K
1I
1F
1[
0Q
1C
11
1*
#170000
1"
15
#175000
0"
05
1a
0b
0[
1Q
1\
12
01
0*
1)
#180000
1"
15
#185000
0"
05
1b
1L
1[
0Q
0C
11
1*
1M
#190000
1"
15
#195000
0"
05
0a
1`
0b
0P
0[
1Q
1]
0\
02
13
01
0*
1(
0)
0Q
#200000
1"
15
#205000
0"
05
#210000
1"
15
#215000
0"
05
#220000
b0 $
0%
1"
08
09
15
0T
0<
1;
0U
0>
0M
1C
#225000
0"
05
#230000
1%
1"
19
15
1T
#235000
0"
05
#240000
b1 $
1"
17
15
1<
0;
1Q
#245000
0"
05
1a
0`
1b
1P
1[
0Q
0]
1\
12
03
11
1*
0(
1)
#250000
1"
15
#255000
0"
05
0b
0L
0[
1Q
0C
01
0*
#260000
1"
15
#265000
0"
05
0a
1b
1[
0Q
0\
02
11
1*
0)
#270000
b0 $
1"
07
15
0<
1;
1Q
#275000
0"
05
#280000
b10 $
b11 $
1"
17
18
15
0Y
#285000
0"
05
#290000
0#
0%
b1 $
b0 $
1"
06
09
07
08
15
1Y
0J
0T
0[
1Z
01
0*
0Z
#295000
0"
05
#300000
0&
1"
0:
15
1T
0;
0Q
#305000
0"
05
0b
0K
0I
0F
#310000
1&
1"
1:
15
0T
1;
#315000
0"
05
