QuartusProjectFiles/simulation/qsim/SaleTerminal.msim.vcd
$comment
	File created using the following command:
		vcd file SaleTerminal.msim.vcd -direction
$end
$date
	Tue Jun 15 16:30:16 2021
$end
$version
	ModelSim Version 2020.1
$end
$timescale
	1ps
$end

$scope module BarcodeController_vlg_vec_tst $end
$var reg 1 ! CLK $end
$var reg 4 " Digit_in [3:0] $end
$var reg 1 # ENABLE $end
$var reg 1 $ RESET_N $end
$var wire 1 % BarcodeDigitCompleted $end
$var wire 1 & Barcode_Digit_0 [3] $end
$var wire 1 ' Barcode_Digit_0 [2] $end
$var wire 1 ( Barcode_Digit_0 [1] $end
$var wire 1 ) Barcode_Digit_0 [0] $end
$var wire 1 * Barcode_Digit_1 [3] $end
$var wire 1 + Barcode_Digit_1 [2] $end
$var wire 1 , Barcode_Digit_1 [1] $end
$var wire 1 - Barcode_Digit_1 [0] $end
$var wire 1 . Barcode_Digit_2 [3] $end
$var wire 1 / Barcode_Digit_2 [2] $end
$var wire 1 0 Barcode_Digit_2 [1] $end
$var wire 1 1 Barcode_Digit_2 [0] $end
$var wire 1 2 Barcode_Digit_3 [3] $end
$var wire 1 3 Barcode_Digit_3 [2] $end
$var wire 1 4 Barcode_Digit_3 [1] $end
$var wire 1 5 Barcode_Digit_3 [0] $end
$var wire 1 6 HEX0 [6] $end
$var wire 1 7 HEX0 [5] $end
$var wire 1 8 HEX0 [4] $end
$var wire 1 9 HEX0 [3] $end
$var wire 1 : HEX0 [2] $end
$var wire 1 ; HEX0 [1] $end
$var wire 1 < HEX0 [0] $end
$var wire 1 = HEX1 [6] $end
$var wire 1 > HEX1 [5] $end
$var wire 1 ? HEX1 [4] $end
$var wire 1 @ HEX1 [3] $end
$var wire 1 A HEX1 [2] $end
$var wire 1 B HEX1 [1] $end
$var wire 1 C HEX1 [0] $end
$var wire 1 D HEX2 [6] $end
$var wire 1 E HEX2 [5] $end
$var wire 1 F HEX2 [4] $end
$var wire 1 G HEX2 [3] $end
$var wire 1 H HEX2 [2] $end
$var wire 1 I HEX2 [1] $end
$var wire 1 J HEX2 [0] $end
$var wire 1 K HEX3 [6] $end
$var wire 1 L HEX3 [5] $end
$var wire 1 M HEX3 [4] $end
$var wire 1 N HEX3 [3] $end
$var wire 1 O HEX3 [2] $end
$var wire 1 P HEX3 [1] $end
$var wire 1 Q HEX3 [0] $end
$var wire 1 R NumOfBarcodeDigitsEntered [2] $end
$var wire 1 S NumOfBarcodeDigitsEntered [1] $end
$var wire 1 T NumOfBarcodeDigitsEntered [0] $end

$scope module i1 $end
$var wire 1 U gnd $end
$var wire 1 V vcc $end
$var wire 1 W unknown $end
$var tri1 1 X devclrn $end
$var tri1 1 Y devpor $end
$var tri1 1 Z devoe $end
$var wire 1 [ BarcodeDigitCompleted~output_o $end
$var wire 1 \ NumOfBarcodeDigitsEntered[0]~output_o $end
$var wire 1 ] NumOfBarcodeDigitsEntered[1]~output_o $end
$var wire 1 ^ NumOfBarcodeDigitsEntered[2]~output_o $end
$var wire 1 _ Barcode_Digit_0[0]~output_o $end
$var wire 1 ` Barcode_Digit_0[1]~output_o $end
$var wire 1 a Barcode_Digit_0[2]~output_o $end
$var wire 1 b Barcode_Digit_0[3]~output_o $end
$var wire 1 c Barcode_Digit_1[0]~output_o $end
$var wire 1 d Barcode_Digit_1[1]~output_o $end
$var wire 1 e Barcode_Digit_1[2]~output_o $end
$var wire 1 f Barcode_Digit_1[3]~output_o $end
$var wire 1 g Barcode_Digit_2[0]~output_o $end
$var wire 1 h Barcode_Digit_2[1]~output_o $end
$var wire 1 i Barcode_Digit_2[2]~output_o $end
$var wire 1 j Barcode_Digit_2[3]~output_o $end
$var wire 1 k Barcode_Digit_3[0]~output_o $end
$var wire 1 l Barcode_Digit_3[1]~output_o $end
$var wire 1 m Barcode_Digit_3[2]~output_o $end
$var wire 1 n Barcode_Digit_3[3]~output_o $end
$var wire 1 o HEX0[0]~output_o $end
$var wire 1 p HEX0[1]~output_o $end
$var wire 1 q HEX0[2]~output_o $end
$var wire 1 r HEX0[3]~output_o $end
$var wire 1 s HEX0[4]~output_o $end
$var wire 1 t HEX0[5]~output_o $end
$var wire 1 u HEX0[6]~output_o $end
$var wire 1 v HEX1[0]~output_o $end
$var wire 1 w HEX1[1]~output_o $end
$var wire 1 x HEX1[2]~output_o $end
$var wire 1 y HEX1[3]~output_o $end
$var wire 1 z HEX1[4]~output_o $end
$var wire 1 { HEX1[5]~output_o $end
$var wire 1 | HEX1[6]~output_o $end
$var wire 1 } HEX2[0]~output_o $end
$var wire 1 ~ HEX2[1]~output_o $end
$var wire 1 !! HEX2[2]~output_o $end
$var wire 1 "! HEX2[3]~output_o $end
$var wire 1 #! HEX2[4]~output_o $end
$var wire 1 $! HEX2[5]~output_o $end
$var wire 1 %! HEX2[6]~output_o $end
$var wire 1 &! HEX3[0]~output_o $end
$var wire 1 '! HEX3[1]~output_o $end
$var wire 1 (! HEX3[2]~output_o $end
$var wire 1 )! HEX3[3]~output_o $end
$var wire 1 *! HEX3[4]~output_o $end
$var wire 1 +! HEX3[5]~output_o $end
$var wire 1 ,! HEX3[6]~output_o $end
$var wire 1 -! CLK~input_o $end
$var wire 1 .! RESET_N~input_o $end
$var wire 1 /! Digit_in[3]~input_o $end
$var wire 1 0! BarcodeShiftRegister_inst0|Digit_Reg_0~1_combout $end
$var wire 1 1! ENABLE~input_o $end
$var wire 1 2! BarcodeShiftRegister_inst0|Digit_Reg_3[3]~1_combout $end
$var wire 1 3! BarcodeShiftRegister_inst0|Digit_Reg_1~1_combout $end
$var wire 1 4! BarcodeShiftRegister_inst0|Digit_Reg_2~1_combout $end
$var wire 1 5! BarcodeShiftRegister_inst0|Digit_Reg_3~0_combout $end
$var wire 1 6! Digit_in[2]~input_o $end
$var wire 1 7! BarcodeShiftRegister_inst0|Digit_Reg_0~0_combout $end
$var wire 1 8! BarcodeShiftRegister_inst0|Digit_Reg_1~0_combout $end
$var wire 1 9! BarcodeShiftRegister_inst0|Digit_Reg_2~0_combout $end
$var wire 1 :! BarcodeShiftRegister_inst0|Digit_Reg_3~2_combout $end
$var wire 1 ;! Digit_in[1]~input_o $end
$var wire 1 <! LessThan0~0_combout $end
$var wire 1 =! BarcodeShiftRegister_inst0|NumOfBarcodeDigitsEntered~1_combout $end
$var wire 1 >! BarcodeShiftRegister_inst0|NumOfBarcodeDigitsEntered~2_combout $end
$var wire 1 ?! BarcodeShiftRegister_inst0|NumOfBarcodeDigitsEntered~0_combout $end
$var wire 1 @! Digit_in[0]~input_o $end
$var wire 1 A! Segment0|WideOr6~0_combout $end
$var wire 1 B! Segment0|WideOr5~0_combout $end
$var wire 1 C! Segment0|WideOr4~0_combout $end
$var wire 1 D! Segment0|WideOr3~0_combout $end
$var wire 1 E! Segment0|WideOr2~0_combout $end
$var wire 1 F! Segment0|WideOr1~0_combout $end
$var wire 1 G! Segment0|WideOr0~0_combout $end
$var wire 1 H! Segment1|WideOr6~0_combout $end
$var wire 1 I! Segment1|WideOr5~0_combout $end
$var wire 1 J! Segment1|WideOr4~0_combout $end
$var wire 1 K! Segment1|WideOr3~0_combout $end
$var wire 1 L! Segment1|WideOr2~0_combout $end
$var wire 1 M! Segment1|WideOr1~0_combout $end
$var wire 1 N! Segment1|WideOr0~0_combout $end
$var wire 1 O! Segment2|WideOr6~0_combout $end
$var wire 1 P! Segment2|WideOr5~0_combout $end
$var wire 1 Q! Segment2|WideOr4~0_combout $end
$var wire 1 R! Segment2|WideOr3~0_combout $end
$var wire 1 S! Segment2|WideOr2~0_combout $end
$var wire 1 T! Segment2|WideOr1~0_combout $end
$var wire 1 U! Segment2|WideOr0~0_combout $end
$var wire 1 V! Segment3|WideOr6~0_combout $end
$var wire 1 W! Segment3|WideOr5~0_combout $end
$var wire 1 X! Segment3|WideOr4~0_combout $end
$var wire 1 Y! Segment3|WideOr3~0_combout $end
$var wire 1 Z! Segment3|WideOr2~0_combout $end
$var wire 1 [! Segment3|WideOr1~0_combout $end
$var wire 1 \! Segment3|WideOr0~0_combout $end
$var wire 1 ]! BarcodeShiftRegister_inst0|Digit_Reg_3 [3] $end
$var wire 1 ^! BarcodeShiftRegister_inst0|Digit_Reg_3 [2] $end
$var wire 1 _! BarcodeShiftRegister_inst0|Digit_Reg_3 [1] $end
$var wire 1 `! BarcodeShiftRegister_inst0|Digit_Reg_3 [0] $end
$var wire 1 a! BarcodeShiftRegister_inst0|NumOfBarcodeDigitsEntered [2] $end
$var wire 1 b! BarcodeShiftRegister_inst0|NumOfBarcodeDigitsEntered [1] $end
$var wire 1 c! BarcodeShiftRegister_inst0|NumOfBarcodeDigitsEntered [0] $end
$var wire 1 d! BarcodeShiftRegister_inst0|Digit_Reg_0 [3] $end
$var wire 1 e! BarcodeShiftRegister_inst0|Digit_Reg_0 [2] $end
$var wire 1 f! BarcodeShiftRegister_inst0|Digit_Reg_0 [1] $end
$var wire 1 g! BarcodeShiftRegister_inst0|Digit_Reg_0 [0] $end
$var wire 1 h! BarcodeShiftRegister_inst0|Digit_Reg_1 [3] $end
$var wire 1 i! BarcodeShiftRegister_inst0|Digit_Reg_1 [2] $end
$var wire 1 j! BarcodeShiftRegister_inst0|Digit_Reg_1 [1] $end
$var wire 1 k! BarcodeShiftRegister_inst0|Digit_Reg_1 [0] $end
$var wire 1 l! BarcodeShiftRegister_inst0|Digit_Reg_2 [3] $end
$var wire 1 m! BarcodeShiftRegister_inst0|Digit_Reg_2 [2] $end
$var wire 1 n! BarcodeShiftRegister_inst0|Digit_Reg_2 [1] $end
$var wire 1 o! BarcodeShiftRegister_inst0|Digit_Reg_2 [0] $end
$upscope $end
$upscope $end
$enddefinitions $end
#0
$dumpvars
1!
b0 "
0#
1$
0%
0)
0(
1'
1&
0-
0,
1+
1*
01
00
1/
1.
05
04
13
12
1<
1;
1:
19
18
17
16
1C
1B
1A
1@
1?
1>
1=
1J
1I
1H
1G
1F
1E
1D
1Q
1P
1O
1N
1M
1L
1K
0T
0S
0R
0U
1V
xW
1X
1Y
1Z
0[
0\
0]
0^
0_
0`
1a
1b
0c
0d
1e
1f
0g
0h
1i
1j
0k
0l
1m
1n
1o
1p
1q
1r
1s
1t
1u
1v
1w
1x
1y
1z
1{
1|
1}
1~
1!!
1"!
1#!
1$!
1%!
1&!
1'!
1(!
1)!
1*!
1+!
1,!
1-!
1.!
0/!
10!
01!
02!
03!
04!
05!
06!
17!
08!
09!
0:!
0;!
0<!
0=!
0>!
1?!
0@!
0A!
1B!
1C!
1D!
1E!
1F!
1G!
0H!
1I!
1J!
1K!
1L!
1M!
1N!
0O!
1P!
1Q!
1R!
1S!
1T!
1U!
0V!
1W!
1X!
1Y!
1Z!
1[!
1\!
0`!
0_!
0^!
0]!
0c!
0b!
0a!
0g!
0f!
0e!
0d!
0k!
0j!
0i!
0h!
0o!
0n!
0m!
0l!
$end
#10000
0!
b10 "
1#
11!
0-!
1;!
12!
#20000
1!
1-!
1e!
1d!
1c!
1f!
1`
1\
0b
0a
1A!
0'
0&
1T
1(
0G!
0F!
0D!
0C!
13!
18!
0?!
1=!
0q
0r
0t
0u
0o
0<
06
07
09
0:
#30000
b0 "
0#
0!
01!
0;!
0-!
02!
#40000
1!
1-!
#50000
0!
0-!
#60000
1!
1-!
#70000
0!
0-!
#80000
1!
1-!
#90000
b100 "
b101 "
b111 "
1#
0!
16!
11!
1@!
1;!
0-!
12!
07!
#100000
1!
1-!
1i!
0e!
1h!
1g!
0c!
1b!
1j!
1d
1]
0\
1_
0f
1a
0e
1H!
0A!
0+
1'
0*
1)
0T
1S
1,
0N!
0M!
0K!
0J!
14!
0E!
1D!
1C!
08!
19!
1?!
1q
1r
0s
0x
0y
0{
0|
1o
0v
0C
1<
0=
0>
0@
0A
08
19
1:
#110000
b11 "
b10 "
b0 "
0#
0!
06!
01!
0@!
0;!
0-!
02!
17!
#120000
1!
1-!
#130000
0!
0-!
#140000
1!
1-!
#150000
b1 "
1#
0!
11!
1@!
0-!
12!
#160000
1!
1-!
1m!
0i!
1e!
1l!
1k!
1c!
1n!
0f!
0`
1h
1\
1c
0j
0a
1e
0i
1O!
0H!
0/
1+
0'
0.
1-
1T
10
0(
0U!
0T!
0R!
0Q!
15!
1G!
18!
0L!
1K!
1J!
09!
1:!
0?!
1>!
0=!
1x
1y
0z
1u
0!!
0"!
0$!
0%!
1v
0}
0J
1C
0D
0E
0G
0H
16
0?
1@
1A
#170000
b101 "
0!
16!
0-!
07!
#180000
0#
1!
01!
1-!
02!
1^!
0m!
1i!
0e!
1]!
1o!
0c!
1a!
0b!
1_!
0j!
0d
1l
0]
1^
0\
1g
0n
1a
0e
1i
0m
1V!
1A!
0O!
03
1/
0+
1'
02
11
0T
1R
0S
14
0,
0\!
0[!
0Y!
0X!
1<!
0G!
1F!
0D!
0B!
08!
1N!
19!
0S!
1R!
1Q!
0:!
1!!
1"!
0#!
1|
0p
0r
1t
0u
1[
0(!
0)!
0+!
0,!
1}
0o
0&!
0Q
0<
1J
0K
0L
0N
0O
1%
06
17
09
0;
1=
0F
1G
1H
#190000
b1101 "
b1100 "
b1000 "
1#
0!
06!
1/!
11!
0@!
0-!
12!
00!
17!
#200000
b0 "
0#
1!
0/!
01!
1-!
02!
10!
0^!
1m!
0i!
1e!
0d!
1`!
0g!
0n!
0h
0_
1k
1b
0a
1e
0i
1m
1H!
0V!
13
0/
1+
0'
1&
15
0)
00
0F!
0C!
03!
18!
0N!
1M!
0K!
0I!
09!
1U!
1:!
0Z!
1Y!
1X!
1(!
1)!
0*!
1%!
0w
0y
1{
0|
0q
0t
1&!
0v
0C
1Q
07
0:
0=
1>
0@
0B
1D
0M
1N
1O
#210000
b1000 "
0!
1/!
0-!
00!
#220000
b0 "
1!
0/!
1-!
10!
#230000
0$
0!
0.!
0-!
12!
0:!
08!
07!
05!
04!
00!
#240000
1!
1-!
0m!
0e!
0]!
0l!
0h!
0`!
0o!
0k!
0a!
0_!
0l
0^
0c
0g
0k
1f
1j
1n
1a
1i
0H!
0A!
1/
1'
12
1.
1*
05
01
0-
0R
04
1N!
1L!
1K!
1I!
1T!
1S!
1\!
1[!
1Z!
0<!
1G!
1F!
1E!
1D!
1C!
1B!
0>!
1p
1q
1r
1s
1t
1u
0[
1*!
1+!
1,!
1#!
1$!
1w
1y
1z
1|
1o
1v
1C
1<
1=
1?
1@
1B
1E
1F
1K
1L
1M
0%
16
17
18
19
1:
1;
#250000
1$
0!
1.!
0-!
02!
1?!
17!
10!
