QuartusProjectFiles/simulation/qsim/SaleTerminal.msim.vcd
$comment
	File created using the following command:
		vcd file SaleTerminal.msim.vcd -direction
$end
$date
	Sun Jun 20 02:11:41 2021
$end
$version
	ModelSim Version 2020.1
$end
$timescale
	1ps
$end

$scope module Decoder4x16_vlg_vec_tst $end
$var reg 4 ! in [3:0] $end
$var wire 1 " out [15] $end
$var wire 1 # out [14] $end
$var wire 1 $ out [13] $end
$var wire 1 % out [12] $end
$var wire 1 & out [11] $end
$var wire 1 ' out [10] $end
$var wire 1 ( out [9] $end
$var wire 1 ) out [8] $end
$var wire 1 * out [7] $end
$var wire 1 + out [6] $end
$var wire 1 , out [5] $end
$var wire 1 - out [4] $end
$var wire 1 . out [3] $end
$var wire 1 / out [2] $end
$var wire 1 0 out [1] $end
$var wire 1 1 out [0] $end

$scope module i1 $end
$var wire 1 2 gnd $end
$var wire 1 3 vcc $end
$var wire 1 4 unknown $end
$var tri1 1 5 devclrn $end
$var tri1 1 6 devpor $end
$var tri1 1 7 devoe $end
$var wire 1 8 out[0]~output_o $end
$var wire 1 9 out[1]~output_o $end
$var wire 1 : out[2]~output_o $end
$var wire 1 ; out[3]~output_o $end
$var wire 1 < out[4]~output_o $end
$var wire 1 = out[5]~output_o $end
$var wire 1 > out[6]~output_o $end
$var wire 1 ? out[7]~output_o $end
$var wire 1 @ out[8]~output_o $end
$var wire 1 A out[9]~output_o $end
$var wire 1 B out[10]~output_o $end
$var wire 1 C out[11]~output_o $end
$var wire 1 D out[12]~output_o $end
$var wire 1 E out[13]~output_o $end
$var wire 1 F out[14]~output_o $end
$var wire 1 G out[15]~output_o $end
$var wire 1 H in[0]~input_o $end
$var wire 1 I in[1]~input_o $end
$var wire 1 J in[2]~input_o $end
$var wire 1 K in[3]~input_o $end
$var wire 1 L d1|g4~0_combout $end
$var wire 1 M d1|g4~1_combout $end
$var wire 1 N d1|g4~2_combout $end
$var wire 1 O d1|g4~3_combout $end
$var wire 1 P d1|g4~4_combout $end
$var wire 1 Q d1|g4~5_combout $end
$var wire 1 R d1|g4~6_combout $end
$var wire 1 S d1|g4~7_combout $end
$var wire 1 T d1|g4~8_combout $end
$var wire 1 U d1|g4~9_combout $end
$var wire 1 V d1|g4~10_combout $end
$var wire 1 W d1|g4~11_combout $end
$var wire 1 X d1|g4~12_combout $end
$var wire 1 Y d1|g4~13_combout $end
$var wire 1 Z d1|g4~14_combout $end
$var wire 1 [ d1|g4~15_combout $end
$upscope $end
$upscope $end
$enddefinitions $end
#0
$dumpvars
b0 !
11
00
0/
0.
0-
0,
0+
0*
0)
0(
0'
0&
0%
0$
0#
0"
02
13
x4
15
16
17
18
09
0:
0;
0<
0=
0>
0?
0@
0A
0B
0C
0D
0E
0F
0G
0H
0I
0J
0K
1L
0M
0N
0O
0P
0Q
0R
0S
0T
0U
0V
0W
0X
0Y
0Z
0[
$end
#10000
b1 !
1H
1M
0L
08
19
10
01
#20000
b11 !
b10 !
0H
1I
1N
0M
09
1:
1/
00
#30000
b11 !
1H
1O
0N
0:
1;
1.
0/
#40000
b111 !
b101 !
b100 !
0H
0I
1J
1P
0O
0;
1<
1-
0.
#50000
b101 !
1H
1Q
0P
0<
1=
1,
0-
#60000
b111 !
b110 !
0H
1I
1R
0Q
0=
1>
1+
0,
#70000
b111 !
1H
1S
0R
0>
1?
1*
0+
#80000
b1111 !
b1011 !
b1001 !
b1000 !
0H
0I
0J
1K
1T
0S
0?
1@
1)
0*
#90000
b1001 !
1H
1U
0T
0@
1A
1(
0)
#100000
b1011 !
b1010 !
0H
1I
1V
0U
0A
1B
1'
0(
#110000
b1011 !
1H
1W
0V
0B
1C
1&
0'
#120000
b1111 !
b1101 !
b1100 !
0H
0I
1J
1X
0W
0C
1D
1%
0&
#130000
b1101 !
1H
1Y
0X
0D
1E
1$
0%
#140000
b1111 !
b1110 !
0H
1I
1Z
0Y
0E
1F
1#
0$
#150000
b1111 !
1H
1[
0Z
0F
1G
1"
0#
