QuartusProjectFiles/simulation/qsim/SaleTerminal.msim.vcd
$comment
	File created using the following command:
		vcd file SaleTerminal.msim.vcd -direction
$end
$date
	Wed Jun 16 07:51:35 2021
$end
$version
	ModelSim Version 2020.1
$end
$timescale
	1ps
$end

$scope module Direction2ProductID_vlg_vec_tst $end
$var reg 1 ! CLOCK $end
$var reg 2 " Dir_in [1:0] $end
$var reg 1 # Enable $end
$var reg 1 $ RESET_N $end
$var wire 1 % ProductID [3] $end
$var wire 1 & ProductID [2] $end
$var wire 1 ' ProductID [1] $end
$var wire 1 ( ProductID [0] $end

$scope module i1 $end
$var wire 1 ) gnd $end
$var wire 1 * vcc $end
$var wire 1 + unknown $end
$var tri1 1 , devclrn $end
$var tri1 1 - devpor $end
$var tri1 1 . devoe $end
$var wire 1 / ProductID[0]~output_o $end
$var wire 1 0 ProductID[1]~output_o $end
$var wire 1 1 ProductID[2]~output_o $end
$var wire 1 2 ProductID[3]~output_o $end
$var wire 1 3 CLOCK~input_o $end
$var wire 1 4 RESET_N~input_o $end
$var wire 1 5 Dir_in[1]~input_o $end
$var wire 1 6 Dir_in[0]~input_o $end
$var wire 1 7 Mux0~0_combout $end
$var wire 1 8 ProductID~4_combout $end
$var wire 1 9 Enable~input_o $end
$var wire 1 : ProductID~1_combout $end
$var wire 1 ; ProductID[3]~reg0_q $end
$var wire 1 < Mux1~0_combout $end
$var wire 1 = ProductID~3_combout $end
$var wire 1 > ProductID[2]~reg0_q $end
$var wire 1 ? Mux2~0_combout $end
$var wire 1 @ ProductID~2_combout $end
$var wire 1 A ProductID[1]~reg0_q $end
$var wire 1 B Mux3~0_combout $end
$var wire 1 C ProductID~0_combout $end
$var wire 1 D ProductID[0]~reg0_q $end
$upscope $end
$upscope $end
$enddefinitions $end
#0
$dumpvars
1!
b0 "
0#
1$
0(
0'
0&
0%
0)
1*
x+
1,
1-
1.
0/
00
01
02
13
14
05
06
07
08
09
0:
0;
0<
0=
0>
1?
0@
0A
1B
0C
0D
$end
#5000
0!
03
#10000
1!
13
#15000
0!
03
#20000
1#
b10 "
1!
19
15
13
1<
1:
1=
#25000
0!
03
1>
11
0<
17
1&
18
0=
#30000
0#
b0 "
1!
09
05
13
0B
0?
07
0:
08
1@
1C
#35000
0!
03
#40000
1!
13
#45000
0!
03
#50000
1#
b10 "
1!
19
15
13
1B
1?
17
1:
18
0@
0C
#55000
0!
03
1;
0>
01
12
0B
0?
1%
0&
1@
1C
#60000
0#
b0 "
1!
09
05
13
1<
07
0:
08
1=
#65000
0!
03
#70000
b1 "
b11 "
1!
16
15
13
1?
0<
17
18
0=
0@
#75000
0!
03
#80000
1#
b10 "
b0 "
1!
19
06
05
13
0?
1<
07
1:
08
1=
1@
#85000
0!
03
0;
1>
1A
1D
1/
10
11
02
1B
0%
1&
1'
1(
0C
#90000
0#
1!
09
13
0:
#95000
0!
03
#100000
b1 "
b11 "
1#
1!
16
15
19
13
1:
1?
0<
17
18
0=
0@
#105000
0!
03
1;
0>
0A
0D
0/
00
01
12
0B
1%
0&
0'
0(
1C
#110000
b10 "
b0 "
0#
1!
06
05
09
13
0:
0?
1<
07
08
1=
1@
#115000
0!
03
#120000
b10 "
1#
1!
15
19
13
1:
0<
17
18
0=
#125000
0!
03
1A
1D
1/
10
1'
1(
#130000
b11 "
b1 "
1!
16
05
13
1<
07
08
1=
#135000
0!
03
0;
1>
11
02
0<
0%
1&
0=
#140000
0$
0#
b0 "
1!
04
09
06
13
1B
1<
0C
0@
#145000
0!
03
0>
0A
0D
0/
00
01
1?
0<
0&
0'
0(
#150000
1$
1!
14
13
0:
#155000
0!
03
